Úkol
…
struktura_uzemi <- czso_get_table("struktura_uzemi_cr")

ℹ File already in 'data-input/czso/struktura_uzemi_cr', not downloading.
Set `force_redownload = TRUE` if needed.

Obce a jejich počty obyvatel

czso_kat <- czso_get_catalogue()

czso_kat |>
  czso_filter_catalogue(c("obyv", "obce")) |>
  select(title, description, dataset_id)

# A tibble: 30 × 3
   title                                                  description dataset_id
   <chr>                                                  <chr>       <chr>     
 1 Obyvatelstvo podle pohlaví a základních věkových skup… Datová sad… 130149    
 2 Pohyb obyvatel - rok 2022                              Datová sad… 130141r23 
 3 Pohyb obyvatel - rok 2023                              Datová sad… 130141r24 
 4 Pohyb obyvatel za ČR, kraje, okresy, SO ORP a obce - … Datová sad… 130141r14 
 5 Pohyb obyvatel za ČR, kraje, okresy, SO ORP a obce - … Datová sad… 130141r15 
 6 Pohyb obyvatel za ČR, kraje, okresy, SO ORP a obce - … Datová sad… 130141r16 
 7 Pohyb obyvatel za ČR, kraje, okresy, SO ORP a obce - … Datová sad… 130141r18 
 8 Pohyb obyvatel za ČR, kraje, okresy, SO ORP a obce - … Datová sad… 130141r19 
 9 Pohyb obyvatel za ČR, kraje, okresy, SO ORP a obce - … Datová sad… 130141r20 
10 Pohyb obyvatel za ČR, kraje, okresy, SO ORP a obce - … Datová sad… 130141r21 
# ℹ 20 more rows
…
obyv_obce0 |>
  count(uzemi_cis, obdobi) |>
  spread(uzemi_cis, n)

# A tibble: 24 × 7
   obdobi     `100` `101`  `43`  `65`  `97`  `99`
   <chr>      <int> <int> <int> <int> <int> <int>
 1 2000-12-31   168   912 75000  2460    12    96
 2 2001-12-31   168   912 75096  2460    12    96
 3 2002-12-31   168   912 75048  2460    12    96
 4 2003-12-31   168   912 74988  2460    12    96
 5 2004-12-31   168   912 74988  2460    12    96
 6 2005-12-31   168   912 74978  2460    12    96
 7 2006-12-31   168   912 75000  2460    12    96
 8 2007-12-31   168   912 74988  2460    12    96
 9 2008-12-31   168   912 74988  2460    12    96
10 2009-12-31   168   912 74996  2460    12    96
# ℹ 14 more rows
…
# A tibble: 6 × 2
  druh   trida            
  <chr>  <chr>            
1 Příjmy Daňové příjmy    
2 Příjmy Nedaňové příjmy  
3 Příjmy Přijaté transfery
4 Příjmy Kapitálové příjmy
5 Výdaje Běžné výdaje     
6 Výdaje Kapitálové výdaje

dta |>
  distinct(druh, seskupeni)

# A tibble: 27 × 2
   druh   seskupeni                                                             
   <chr>  <chr>                                                                 
 1 Příjmy Daně z příjmů, zisku a kapitálových výnosů                            
 2 Příjmy Daně, poplatky a jiná obdobná peněžitá plnění ze zboží a služeb v tuz…
 3 Příjmy Daně a poplatky z vybraných činností a služeb                         
 4 Příjmy Příjem z majetkových daní                                             
 5 Příjmy Přijaté splátky půjčených prostředků                                  
 6 Příjmy Neinvestiční přijaté transfery                                        
 7 Příjmy Investiční přijaté transfery                                          
 8 Příjmy Příjem z prodeje neinvestičního majetku a ostatní nedaňové příjmy     
 9 Příjmy Příjem z vlastní činnosti a odvody přebytků organizací s přímým vztah…
10 Příjmy Přijaté sankční platby a vratky transferů                             
# ℹ 17 more rows
…
